{
  "id": "GHSA-p9g3-vpvp-hcj5",
  "package_name": "bufber-xor",
  "package_manager": "npm",
  "vulnerable_version": "<0",
  "sources": [
    "https://nvd.nist.gov/vuln/detail/GHSA-p9g3-vpvp-hcj5"
  ],
  "type": "PATCH"
}