{
  "id": "GHSA-97mp-9g5c-6c93",
  "package_name": "bs58chcek",
  "package_manager": "npm",
  "vulnerable_version": "<0",
  "sources": [
    "https://nvd.nist.gov/vuln/detail/GHSA-97mp-9g5c-6c93"
  ],
  "type": "PATCH"
}