{
  "id": "GHSA-h77f-xxx7-4858",
  "package_name": "org.geysermc:connector",
  "package_manager": "maven",
  "vulnerable_version": ">=0 <=1.4.1-snapshot",
  "sources": [
    "https://nvd.nist.gov/vuln/detail/GHSA-h77f-xxx7-4858"
  ],
  "type": "PATCH"
}