{
  "id": "GHSA-f72h-wf57-7xwh",
  "package_name": "buffer-xo2",
  "package_manager": "npm",
  "vulnerable_version": "<0",
  "sources": [
    "https://nvd.nist.gov/vuln/detail/GHSA-f72h-wf57-7xwh"
  ],
  "type": "PATCH"
}