{
  "id": "GHSA-725f-3pw7-rq6x",
  "package_name": "8.9.4",
  "package_manager": "npm",
  "vulnerable_version": "<0",
  "sources": [
    "https://nvd.nist.gov/vuln/detail/GHSA-725f-3pw7-rq6x"
  ],
  "type": "PATCH"
}