{
  "id": "GHSA-8g3r-968r-c644",
  "package_name": "jw-sha3",
  "package_manager": "npm",
  "vulnerable_version": "<0",
  "sources": [
    "https://nvd.nist.gov/vuln/detail/GHSA-8g3r-968r-c644"
  ],
  "type": "PATCH"
}