{
  "id": "GHSA-7frr-c83r-fm22",
  "package_name": "buffez-xor",
  "package_manager": "npm",
  "vulnerable_version": "<0",
  "sources": [
    "https://nvd.nist.gov/vuln/detail/GHSA-7frr-c83r-fm22"
  ],
  "type": "PATCH"
}