{
  "id": "GHSA-w3f3-4j22-2v3p",
  "package_name": "destroyer-of-worlds",
  "package_manager": "npm",
  "vulnerable_version": "<0",
  "sources": [
    "https://nvd.nist.gov/vuln/detail/GHSA-w3f3-4j22-2v3p"
  ],
  "type": "PATCH"
}