<svg width="512" height="512" viewBox="0 0 512 512" fill="none" xmlns="http://www.w3.org/2000/svg">
<g clip-path="url(#clip0_871_25185)">
<path d="M480 160C480 149.3 478.7 138.9 476.2 129L427.3 177.9C418.3 186.9 406.1 192 393.4 192H368C341.5 192 320 170.5 320 144V118.6C320 105.9 325.1 93.7 334.1 84.7L383 35.8C373.1 33.3 362.7 32 352 32C281.3 32 224 89.3 224 160C224 169.2 225 178.1 226.8 186.7C230 201.9 226.2 219.1 213.7 231.6L45.8 399.4C37 408.3 32 420.3 32 432.8C32 458.9 53.1 480 79.2 480C91.7 480 103.7 475 112.6 466.2L280.5 298.3C292.9 285.9 310.2 282 325.4 285.2C334 287 342.9 288 352.1 288C422.8 288 480.1 230.7 480.1 160H480ZM512 160C512 248.4 440.4 320 352 320C340.6 320 329.4 318.8 318.7 316.5C313.1 315.3 307.2 316.8 303.1 320.9L135.2 488.8C120.3 503.7 100.2 512 79.2 512C35.5 512 0 476.5 0 432.8C0 411.8 8.3 391.7 23.2 376.8L191.1 208.9C195.2 204.8 196.7 198.9 195.5 193.3C193.2 182.6 192 171.4 192 160C192 71.6 263.6 0 352 0C376.8 0 400.3 5.7 421.3 15.7C430.5 20.1 431.8 32.2 424.6 39.4L356.7 107.3C353.7 110.3 352 114.4 352 118.6V144C352 152.8 359.2 160 368 160H393.4C397.6 160 401.7 158.3 404.7 155.3L472.6 87.4C479.8 80.2 491.9 81.5 496.3 90.7C506.4 111.7 512 135.2 512 160ZM88 408C92.2435 408 96.3131 409.686 99.3137 412.686C102.314 415.687 104 419.757 104 424C104 428.243 102.314 432.313 99.3137 435.314C96.3131 438.314 92.2435 440 88 440C83.7565 440 79.6869 438.314 76.6863 435.314C73.6857 432.313 72 428.243 72 424C72 419.757 73.6857 415.687 76.6863 412.686C79.6869 409.686 83.7565 408 88 408Z" fill="#101828"/>
</g>
<defs>
<clipPath id="clip0_871_25185">
<rect width="512" height="512" fill="white"/>
</clipPath>
</defs>
</svg>
