{
  "id": "GHSA-629c-j867-3v45",
  "package_name": "bitcoisnj-lib",
  "package_manager": "npm",
  "vulnerable_version": "<0",
  "sources": [
    "https://nvd.nist.gov/vuln/detail/GHSA-629c-j867-3v45"
  ],
  "type": "PATCH"
}