{
  "id": "GHSA-v95x-h953-x7fg",
  "package_name": "k0a_multer",
  "package_manager": "npm",
  "vulnerable_version": "<0",
  "sources": [
    "https://nvd.nist.gov/vuln/detail/GHSA-v95x-h953-x7fg"
  ],
  "type": "PATCH"
}