{
  "id": "GHSA-mxmj-84q8-34r7",
  "package_name": "expressfs",
  "package_manager": "npm",
  "vulnerable_version": ">=0 <=0.2.10",
  "sources": [
    "https://nvd.nist.gov/vuln/detail/GHSA-mxmj-84q8-34r7"
  ],
  "type": "PATCH"
}