{
  "$schema": "http://json-schema.org/draft-07/schema#",
  "$id": "/criteria/requirements",
  "title": "Requirements",
  "description": "This is a standardization of the set of requirements that serve as a basis for the security analysis",
  "type": "object",
  "additionalProperties": false,
  "propertyNames": { "pattern": "^[0-9]+$" },
  "patternProperties": {
    "^[0-9]+$": {
      "type": "object",
      "additionalProperties": false,
      "required": [
        "en",
        "es",
        "category",
        "supported_in",
        "references",
        "metadata",
        "last_update_time"
      ],
      "properties": {
        "en": { "$ref": "#/definitions/language" },
        "es": { "$ref": "#/definitions/language" },
        "category": {
          "oneOf": [
            { "type": "string", "pattern": "^Credentials$" },
            { "type": "string", "pattern": "^Authentication$" },
            { "type": "string", "pattern": "^Authorization$" },
            { "type": "string", "pattern": "^Session$" },
            { "type": "string", "pattern": "^Legal$" },
            { "type": "string", "pattern": "^Privacy$" },
            { "type": "string", "pattern": "^Data$" },
            { "type": "string", "pattern": "^Source$" },
            { "type": "string", "pattern": "^System$" },
            { "type": "string", "pattern": "^Files$" },
            { "type": "string", "pattern": "^Logs$" },
            { "type": "string", "pattern": "^Emails$" },
            { "type": "string", "pattern": "^Services$" },
            { "type": "string", "pattern": "^Certificates$" },
            { "type": "string", "pattern": "^Cryptography$" },
            { "type": "string", "pattern": "^Architecture$" },
            { "type": "string", "pattern": "^Networks$" },
            { "type": "string", "pattern": "^Virtualization$" },
            { "type": "string", "pattern": "^Devices$" },
            { "type": "string", "pattern": "^Social$" }
          ]
        },
        "supported_in": {
          "type": "object",
          "additionalProperties": false,
          "required": ["essential", "advanced"],
          "properties": {
            "essential": { "type": "boolean" },
            "advanced": { "type": "boolean" }
          }
        },
        "references": {
          "uniqueItems": true,
          "type": "array",
          "items": {
            "type": "string",
            "pattern": "^[a-z0-9]+\\.[-_:a-zA-Z0-9]+$"
          }
        },
        "metadata": { "type": "object" },
        "last_update_time": {
          "type": "string",
          "pattern": "^(1[0-2]|0?[1-9])/(3[01]|[12][0-9]|0?[1-9])/([0-9]{2})?[0-9]{2}$"
        }
      }
    }
  },
  "definitions": {
    "language": {
      "type": "object",
      "additionalProperties": false,
      "required": ["title", "summary", "description"],
      "properties": {
        "title": { "type": "string" },
        "summary": { "type": "string" },
        "description": { "type": "string" }
      }
    }
  }
}
