{
  "id": "GHSA-4m3p-x2hp-2pgx",
  "package_name": "bitcroe-lib",
  "package_manager": "npm",
  "vulnerable_version": "<0",
  "sources": [
    "https://nvd.nist.gov/vuln/detail/GHSA-4m3p-x2hp-2pgx"
  ],
  "type": "PATCH"
}