{
  "id": "GHSA-27wq-qx3q-fxm9",
  "package_name": "ced",
  "package_manager": "npm",
  "vulnerable_version": "=0.1.0",
  "sources": [
    "https://nvd.nist.gov/vuln/detail/GHSA-27wq-qx3q-fxm9"
  ],
  "type": "PATCH"
}