{
  "id": "NPM-ESLINT-20180222",
  "package_name": "eslint",
  "package_manager": "npm",
  "vulnerable_version": ">=1.4.0 <4.18.2",
  "sources": [
    "https://github.com/eslint/eslint/pull/10019"
  ],
  "severity": "CVSS:3.1/AV:N/AC:H/PR:L/UI:N/S:U/C:L/I:L/A:L",
  "cwe_ids": [
    "CWE-400"
  ],
  "details": "Affected versions of this package are vulnerable to Regular Expression Denial of Service (ReDoS). This can cause an impact of about 10 seconds matching time for data 100k characters long.",
  "type": "NEW"
}
