{
  "id": "GHSA-qv78-398w-cxp7",
  "package_name": "shrugging-logging",
  "package_manager": "npm",
  "vulnerable_version": "<0",
  "sources": [
    "https://nvd.nist.gov/vuln/detail/GHSA-qv78-398w-cxp7"
  ],
  "type": "PATCH"
}