AddConsult
AddEventComment
AddGitRoot
AddGroup
AddGroupComment
AddGroupFiles
AddGroupTags
AddObservation
AddOrganization
AddProjectFiles
AddProjectTags
AddUserAccess
AddUserOrganizationAccess
AddVulnerabilityLevel
AddVulnerabilityTag
AnalyticsSubscribe
AnalyticsUnsubscribe
AutoenrollAlreadyInTrial
AutoenrollCancel
AutoenrollCheckAccess
AutoenrollCorporateOnly
AutoenrollmentWelcome
AutoenrollSuccess
AutoenrollSubmit
CurrentStakeholder
DeleteGroup
DownloadGraphic
DownloadGroupFile
DownloadProjectFile
DownloadVulnFile
EditGitRoot
EditGroupData
EditUserAccess
EditUserOrganizationAccess
EventComments
EventDescription
EventEvidence
FindingComments
FindingConsulting
FindingDescription
FindingEvidence
FindingExploit
FindingLocations
FindingMachine
FindingObservations
FindingRecords
FindingSeverity
FindingTracking
FindingVulnerabilities
FindingVulns
GenerateAPIToken
Group
GroupAnalytics
GroupAuthors
GroupConsulting
GroupDevsecops
GroupDrafts
GroupEvents
GroupIndicators
GroupInputs
GroupLocations
GroupReportRequest
GroupResources
GroupScope
GroupStakeholders
GroupVulns
Login Azure
Login Bitbucket
Login Google
Logout
MobileAuth
NewOrganization
OpenGlobalConfig
Organization
OrganizationAnalytics
OrganizationGroups
OrganizationPolicies
OrganizationPortfolios
OrganizationStakeholders
OrganizationVulns
ProjectComments
ProjectDrafts
ProjectEvents
ProjectFindings
ProjectResources
ProjectUsers
ReadDraft
ReadEvent
ReadFinding
Register
RemoveEvidence
RemoveFile
RemoveGroupFiles
RemoveProjectEnv
RemoveProjectFiles
RemoveRecords
RemoveTag
RemoveUserAccess
RemoveUserOrganizationAccess
RequestReattack
SearchGroup
SendSquadFormOnboarding
SupportedLanguagesOnboarding
UnsubscribeFromGroup
UpdatedTreatmentVulnerabilities
UpdateOrganizationPolicies
UpdateSeverity
UploadGroupFile
ViewVulnerability
VulnerabilityLink
