{
  "id": "GHSA-mhxg-pr3j-v9gr",
  "package_name": "colne",
  "package_manager": "npm",
  "vulnerable_version": "<0",
  "sources": [
    "https://nvd.nist.gov/vuln/detail/GHSA-mhxg-pr3j-v9gr"
  ],
  "type": "PATCH"
}