{
  "id": "GHSA-m5p4-7wf9-6w99",
  "package_name": "regenrator",
  "package_manager": "npm",
  "vulnerable_version": "<0",
  "sources": [
    "https://nvd.nist.gov/vuln/detail/GHSA-m5p4-7wf9-6w99"
  ],
  "type": "PATCH"
}