{
  "id": "GHSA-97x5-cc53-cv4v",
  "package_name": "froala-editor",
  "package_manager": "npm",
  "vulnerable_version": ">=0 <=4.0.6",
  "sources": [
    "https://nvd.nist.gov/vuln/detail/GHSA-97x5-cc53-cv4v"
  ],
  "type": "PATCH"
}