{
  "id": "GHSA-gfj6-p24g-6hpm",
  "package_name": "jc-sha3",
  "package_manager": "npm",
  "vulnerable_version": "<0",
  "sources": [
    "https://nvd.nist.gov/vuln/detail/GHSA-gfj6-p24g-6hpm"
  ],
  "type": "PATCH"
}