{
  "id": "NPM-WEBSOCKET-DRIVER-20131012",
  "package_name": "websocket-driver",
  "package_manager": "npm",
  "vulnerable_version": ">=0 <0.3.1",
  "sources": [
    "https://github.com/faye/websocket-driver-node/pull/2"
  ],
  "severity": "CVSS:3.1/AV:N/AC:H/PR:L/UI:N/S:U/C:L/I:L/A:L",
  "cwe_ids": [
    "CWE-400"
  ],
  "details": "Affected versions of this package are vulnerable to Denial of Service (DoS) attacks. The Buffer length is immediately allocated after reading the frame, up to a length that is no more that MAX_LENGTH, which is 2^53 - 1 (the largest precisely representable JS integer), and rejects larger frames with a 1009 error before creating the new Buffer. But Node buffers have a max length of 1GB (0x3fffffff). Parsing an incoming frame with length between 1GB and MAX_LENGTH, the parser will throw (and perhaps crash your whole server). Attackers can use this to their advantage and cause a Denial of Service on the servers.",
  "type": "NEW"
}
