{
  "id": "GHSA-6vfc-qv3f-vr6c",
  "package_name": "markdown-it",
  "package_manager": "npm",
  "vulnerable_version": ">=0 <=12.3.1",
  "sources": [
    "https://nvd.nist.gov/vuln/detail/GHSA-6vfc-qv3f-vr6c"
  ],
  "type": "PATCH"
}