{
  "id": "JS-IOREDIS-1567196",
  "package_name": "ioredis",
  "package_manager": "npm",
  "vulnerable_version": "<4.27.8",
  "sources": [
    "https://github.com/luin/ioredis/issues/1267"
  ],
  "severity": "CVSS:3.1/AV:N/AC:H/PR:L/UI:N/S:U/C:L/I:L/A:L",
  "cwe_ids": [
    "CWE-1321"
  ],
  "details": "Affected versions of this package are vulnerable to Prototype Pollution. The reply transformer which is applied does not check for special field names. This only impacts applications that are directly allowing user-provided field names.",
  "type": "NEW"
}
