{
  "id": "GHSA-rrvm-gqq8-q2wx",
  "package_name": "require-port",
  "package_manager": "npm",
  "vulnerable_version": "<0",
  "sources": [
    "https://nvd.nist.gov/vuln/detail/GHSA-rrvm-gqq8-q2wx"
  ],
  "type": "PATCH"
}