{
  "id": "GHSA-q7cg-43mg-qp69",
  "package_name": "microsoft.aspnetcore.authentication.jwtbearer",
  "package_manager": "nuget",
  "vulnerable_version": ">=0 <2.1.29 || >=3.0.0 <3.1.18 || >=5.0.0 <5.0.9",
  "sources": [
    "https://nvd.nist.gov/vuln/detail/GHSA-q7cg-43mg-qp69"
  ],
  "type": "PATCH"
}