{
  "$schema": "http://json-schema.org/draft-07/schema#",
  "$id": "/criteria/compliance",
  "title": "compliance",
  "description": "This is a standardization of the set of compliance that serve as a basis for the security analysis",
  "type": "object",
  "additionalProperties": false,
  "propertyNames": { "pattern": "^[a-z0-9]+$" },
  "patternProperties": {
    "^[a-z0-9]+$": {
      "type": "object",
      "additionalProperties": false,
      "required": [ "title", "en", "es", "definitions", "metadata", "last_update_time" ],
      "properties": {
        "title": { "type": "string" },
        "en": { "$ref": "#/definitions/language" },
        "es": { "$ref": "#/definitions/language" },
        "definitions": {
          "type": "object",
          "additionalProperties": false,
          "propertyNames": { "pattern": "^[-_:a-zA-Z0-9]+$" },
          "patternProperties": {
            "^[-_:a-zA-Z0-9]+$": {
              "type": "object",
              "additionalProperties": false,
              "required": [ "title", "link" ],
              "properties": {
                "title": { "type": "string" },
                "link": {
                  "type": "string",
                  "pattern": "^https?://(www\\.)?[-a-zA-Z0-9@:%._\\+~#=]{2,256}\\.[a-z]{2,4}\\b([-a-zA-Z0-9@:%_\\+.~#?&//=]*)$"
                }
              }
            }
          }
        },
        "metadata": { "type": "object" },
        "last_update_time": { "type": "string", "pattern": "^(1[0-2]|0?[1-9])\/(3[01]|[12][0-9]|0?[1-9])\/([0-9]{2})?[0-9]{2}$" }
      }
    }
  },
  "definitions": {
    "language": {
      "type": "object",
      "additionalProperties": false,
      "required": [ "summary" ],
      "properties": {
        "summary": { "type": "string" }
      }
    }
  }
}
