{
  "id": "GHSA-w7rc-rwvf-8q5r",
  "package_name": "node-fetch",
  "package_manager": "npm",
  "vulnerable_version": ">=0 <2.6.1 || =3.0.0",
  "sources": [
    "https://nvd.nist.gov/vuln/detail/GHSA-w7rc-rwvf-8q5r"
  ],
  "type": "PATCH"
}