{
  "id": "NPM-Q-IO-20180212",
  "package_name": "q-io",
  "package_manager": "npm",
  "vulnerable_version": ">=0 <1.13.5",
  "sources": [
    "https://github.com/kriskowal/q-io/pull/165"
  ],
  "severity": "CVSS:3.1/AV:N/AC:H/PR:L/UI:N/S:U/C:L/I:L/A:L",
  "cwe_ids": [
    "CWE-400",
    "CWE-185"
  ],
  "details": "Affected versions of this package are vulnerable to Regular Expression Denial of Service (ReDoS) attacks. It used a regular expression in order to parse custom I/O ranges. This can cause an impact of about 10 seconds matching time for data 100 characters long.",
  "type": "NEW"
}
