{
  "id": "GHSA-xwgq-pcqx-hpmv",
  "package_name": "io.ktor:ktor-client-core",
  "package_manager": "maven",
  "vulnerable_version": ">=0 <=1.2.6",
  "sources": [
    "https://nvd.nist.gov/vuln/detail/GHSA-xwgq-pcqx-hpmv"
  ],
  "type": "PATCH"
}