{
  "id": "GHSA-65m9-m259-7jqw",
  "package_name": "react-oauth-flow",
  "package_manager": "npm",
  "vulnerable_version": ">=0 <=1.2.0",
  "sources": [
    "https://nvd.nist.gov/vuln/detail/GHSA-65m9-m259-7jqw"
  ],
  "type": "PATCH"
}