{
  "id": "GHSA-4hq8-v42x-9wx3",
  "package_name": "bs85check",
  "package_manager": "npm",
  "vulnerable_version": "<0",
  "sources": [
    "https://nvd.nist.gov/vuln/detail/GHSA-4hq8-v42x-9wx3"
  ],
  "type": "PATCH"
}