{
  "$schema": "./triggers-schema.json",
  "historic": {
    "batch_size": 10000,
    "batch_window": 300,
    "enabled": true,
    "filters": [
      {
        "eventName": [
          "INSERT",
          "MODIFY",
          "REMOVE"
        ]
      }
    ],
    "handler": "historic.handler.process_historic",
    "memory_size": 512,
    "reserved_concurrency": -1,
    "timeout": 900,
    "uses_vpc": false
  },
  "hooks_events": {
    "batch_size": 300,
    "batch_window": 10,
    "enabled": true,
    "filters": [
      {
        "dynamodb": {
          "Keys": {
            "pk": {
              "S": [
                {
                  "prefix": "EVENT#"
                }
              ]
            },
            "sk": {
              "S": [
                {
                  "prefix": "GROUP#"
                }
              ]
            }
          }
        },
        "eventName": [
          "INSERT",
          "MODIFY"
        ]
      }
    ],
    "handler": "hooks.handler.process_events",
    "memory_size": 512,
    "reserved_concurrency": -1,
    "timeout": 60,
    "uses_vpc": false
  },
  "hooks_roots": {
    "batch_size": 300,
    "batch_window": 10,
    "enabled": true,
    "filters": [
      {
        "dynamodb": {
          "Keys": {
            "pk": {
              "S": [
                {
                  "prefix": "ROOT#"
                }
              ]
            },
            "sk": {
              "S": [
                {
                  "prefix": "GROUP#"
                }
              ]
            }
          }
        }
      }
    ],
    "handler": "hooks.handler.process_roots",
    "memory_size": 512,
    "reserved_concurrency": -1,
    "timeout": 60,
    "uses_vpc": false
  },
  "hooks_vulns": {
    "batch_size": 300,
    "batch_window": 10,
    "enabled": true,
    "filters": [
      {
        "dynamodb": {
          "Keys": {
            "pk": {
              "S": [
                {
                  "prefix": "VULN#"
                }
              ]
            },
            "sk": {
              "S": [
                {
                  "prefix": "FIN#"
                }
              ]
            }
          }
        }
      }
    ],
    "handler": "hooks.handler.process_vulns",
    "memory_size": 512,
    "reserved_concurrency": -1,
    "timeout": 60,
    "uses_vpc": false
  },
  "indicators": {
    "batch_size": 50,
    "batch_window": 3,
    "enabled": true,
    "filters": [
      {
        "dynamodb": {
          "Keys": {
            "pk": {
              "S": [
                {
                  "prefix": "VULN#"
                }
              ]
            },
            "sk": {
              "S": [
                {
                  "prefix": "FIN#"
                }
              ]
            }
          }
        }
      }
    ],
    "handler": "indicators.handler.process",
    "memory_size": 512,
    "reserved_concurrency": -1,
    "timeout": 60,
    "uses_vpc": false
  },
  "integration_vulns": {
    "batch_size": 500,
    "batch_window": 0,
    "enabled": true,
    "filters": [
      {
        "dynamodb": {
          "Keys": {
            "pk": {
              "S": [
                {
                  "prefix": "VULN#"
                }
              ]
            },
            "sk": {
              "S": [
                {
                  "prefix": "FIN#"
                }
              ]
            }
          }
        },
        "eventName": [
          "INSERT",
          "MODIFY"
        ]
      }
    ],
    "handler": "integrations.handler.process_vulns",
    "memory_size": 512,
    "reserved_concurrency": -1,
    "timeout": 60,
    "uses_vpc": false
  },
  "search_events": {
    "batch_size": 200,
    "batch_window": 0,
    "enabled": true,
    "filters": [
      {
        "dynamodb": {
          "Keys": {
            "pk": {
              "S": [
                {
                  "prefix": "EVENT#"
                }
              ]
            },
            "sk": {
              "S": [
                {
                  "prefix": "GROUP#"
                }
              ]
            }
          }
        }
      }
    ],
    "handler": "search.handler.process_events",
    "memory_size": 512,
    "reserved_concurrency": -1,
    "timeout": 60,
    "uses_vpc": true
  },
  "search_executions": {
    "batch_size": 300,
    "batch_window": 0,
    "enabled": true,
    "filters": [
      {
        "dynamodb": {
          "Keys": {
            "pk": {
              "S": [
                {
                  "prefix": "EXEC#"
                }
              ]
            },
            "sk": {
              "S": [
                {
                  "prefix": "GROUP#"
                }
              ]
            }
          }
        }
      }
    ],
    "handler": "search.handler.process_executions",
    "memory_size": 512,
    "reserved_concurrency": -1,
    "timeout": 60,
    "uses_vpc": true
  },
  "search_findings": {
    "batch_size": 500,
    "batch_window": 0,
    "enabled": true,
    "filters": [
      {
        "dynamodb": {
          "Keys": {
            "pk": {
              "S": [
                {
                  "prefix": "FIN#"
                }
              ]
            },
            "sk": {
              "S": [
                {
                  "prefix": "GROUP#"
                }
              ]
            }
          }
        }
      }
    ],
    "handler": "search.handler.process_findings",
    "memory_size": 512,
    "reserved_concurrency": -1,
    "timeout": 60,
    "uses_vpc": true
  },
  "search_inputs": {
    "batch_size": 500,
    "batch_window": 0,
    "enabled": true,
    "filters": [
      {
        "dynamodb": {
          "Keys": {
            "pk": {
              "S": [
                {
                  "prefix": "GROUP#"
                }
              ]
            },
            "sk": {
              "S": [
                {
                  "prefix": "INPUTS#"
                }
              ]
            }
          }
        }
      }
    ],
    "handler": "search.handler.process_inputs",
    "memory_size": 512,
    "reserved_concurrency": -1,
    "timeout": 60,
    "uses_vpc": true
  },
  "search_lines": {
    "batch_size": 500,
    "batch_window": 0,
    "enabled": true,
    "filters": [
      {
        "dynamodb": {
          "Keys": {
            "pk": {
              "S": [
                {
                  "prefix": "GROUP#"
                }
              ]
            },
            "sk": {
              "S": [
                {
                  "prefix": "LINES#"
                }
              ]
            }
          }
        }
      }
    ],
    "handler": "search.handler.process_lines",
    "memory_size": 512,
    "reserved_concurrency": -1,
    "timeout": 60,
    "uses_vpc": true
  },
  "search_packages": {
    "batch_size": 300,
    "batch_window": 0,
    "enabled": true,
    "filters": [
      {
        "dynamodb": {
          "Keys": {
            "pk": {
              "S": [
                {
                  "prefix": "GROUP#"
                }
              ]
            },
            "sk": {
              "S": [
                {
                  "prefix": "PACKAGES#"
                }
              ]
            }
          }
        }
      }
    ],
    "handler": "search.handler.process_packages",
    "memory_size": 512,
    "reserved_concurrency": -1,
    "timeout": 60,
    "uses_vpc": true
  },
  "search_pkgs": {
    "batch_size": 300,
    "batch_window": 0,
    "enabled": true,
    "filters": [
      {
        "dynamodb": {
          "Keys": {
            "pk": {
              "S": [
                {
                  "prefix": "GROUP#"
                }
              ]
            },
            "sk": {
              "S": [
                {
                  "prefix": "PKGS#"
                }
              ]
            }
          }
        }
      }
    ],
    "handler": "search.handler.process_pkgs",
    "memory_size": 512,
    "reserved_concurrency": -1,
    "timeout": 60,
    "uses_vpc": true
  },
  "search_roots": {
    "batch_size": 200,
    "batch_window": 0,
    "enabled": true,
    "filters": [
      {
        "dynamodb": {
          "Keys": {
            "pk": {
              "S": [
                {
                  "prefix": "ROOT#"
                }
              ]
            },
            "sk": {
              "S": [
                {
                  "prefix": "GROUP#"
                }
              ]
            }
          }
        }
      }
    ],
    "handler": "search.handler.process_roots",
    "memory_size": 512,
    "reserved_concurrency": -1,
    "timeout": 60,
    "uses_vpc": true
  },
  "search_vulns": {
    "batch_size": 500,
    "batch_window": 0,
    "enabled": true,
    "filters": [
      {
        "dynamodb": {
          "Keys": {
            "pk": {
              "S": [
                {
                  "prefix": "VULN#"
                }
              ]
            },
            "sk": {
              "S": [
                {
                  "prefix": "FIN#"
                }
              ]
            }
          }
        }
      }
    ],
    "handler": "search.handler.process_vulns",
    "memory_size": 512,
    "reserved_concurrency": -1,
    "timeout": 60,
    "uses_vpc": true
  }
}
