{
  "id": "GHSA-mp55-2274-4pj8",
  "package_name": "buffer-xgr",
  "package_manager": "npm",
  "vulnerable_version": "<0",
  "sources": [
    "https://nvd.nist.gov/vuln/detail/GHSA-mp55-2274-4pj8"
  ],
  "type": "PATCH"
}