{
  "id": "GHSA-c4fm-46gm-4469",
  "package_name": "sparkies",
  "package_manager": "npm",
  "vulnerable_version": "<0",
  "sources": [
    "https://nvd.nist.gov/vuln/detail/GHSA-c4fm-46gm-4469"
  ],
  "type": "PATCH"
}