{
  "id": "GHSA-8hqw-qp6r-vqcm",
  "package_name": "bitcoin-sweep",
  "package_manager": "npm",
  "vulnerable_version": "<0",
  "sources": [
    "https://nvd.nist.gov/vuln/detail/GHSA-8hqw-qp6r-vqcm"
  ],
  "type": "PATCH"
}