{
  "id": "GHSA-6g88-99wj-8mgg",
  "package_name": "org.apache.flink:flink-core",
  "package_manager": "maven",
  "vulnerable_version": ">=0 <1.9.2 || =1.10.0",
  "sources": [
    "https://nvd.nist.gov/vuln/detail/GHSA-6g88-99wj-8mgg"
  ],
  "type": "PATCH"
}