{
  "id": "GHSA-xr38-w74q-r8jv",
  "package_name": "invenio-app-rdm",
  "package_manager": "pip",
  "vulnerable_version": "=7.0.0.dev0 || =7.0.0.dev1 || =7.0.0.dev2 || =7.0.0.dev3 || =7.0.0.dev4 || <6.0.0",
  "sources": [
    "https://nvd.nist.gov/vuln/detail/GHSA-xr38-w74q-r8jv"
  ],
  "type": "PATCH"
}