{
  "vulnerability_mapping": {
    "allowed": [
      5,
      6,
      7,
      8,
      9,
      11,
      12,
      13,
      14,
      15,
      22,
      23,
      24,
      25,
      26,
      27,
      28,
      29,
      30,
      31,
      32,
      33,
      34,
      35,
      36,
      37,
      38,
      39,
      40,
      41,
      42,
      43,
      44,
      45,
      46,
      47,
      48,
      49,
      50,
      51,
      52,
      53,
      54,
      55,
      56,
      57,
      58,
      59,
      61,
      62,
      64,
      65,
      66,
      67,
      69,
      72,
      73,
      76,
      77,
      78,
      79,
      80,
      81,
      82,
      83,
      84,
      85,
      86,
      87,
      88,
      89,
      90,
      91,
      93,
      94,
      95,
      96,
      97,
      98,
      99,
      102,
      103,
      104,
      105,
      106,
      107,
      108,
      109,
      110,
      111,
      112,
      113,
      114,
      115,
      116,
      117,
      120,
      121,
      122,
      123,
      124,
      125,
      126,
      127,
      128,
      129,
      130,
      131,
      134,
      135,
      140,
      141,
      142,
      143,
      144,
      145,
      146,
      147,
      148,
      149,
      150,
      151,
      152,
      153,
      154,
      155,
      156,
      157,
      158,
      159,
      160,
      161,
      162,
      163,
      164,
      165,
      166,
      167,
      168,
      170,
      172,
      173,
      174,
      175,
      176,
      177,
      178,
      179,
      180,
      181,
      182,
      183,
      184,
      185,
      186,
      187,
      188,
      190,
      191,
      192,
      193,
      194,
      195,
      196,
      197,
      198,
      201,
      202,
      203,
      204,
      205,
      206,
      207,
      208,
      209,
      210,
      211,
      212,
      213,
      214,
      215,
      219,
      220,
      221,
      222,
      223,
      224,
      226,
      228,
      229,
      230,
      231,
      232,
      233,
      235,
      236,
      237,
      238,
      239,
      240,
      241,
      242,
      243,
      244,
      245,
      246,
      248,
      250,
      252,
      253,
      256,
      257,
      258,
      259,
      260,
      261,
      262,
      263,
      266,
      267,
      268,
      270,
      271,
      272,
      273,
      276,
      277,
      278,
      279,
      280,
      281,
      282,
      283,
      286,
      288,
      289,
      290,
      291,
      293,
      294,
      295,
      296,
      297,
      298,
      299,
      301,
      302,
      303,
      304,
      305,
      306,
      307,
      308,
      309,
      312,
      313,
      314,
      315,
      316,
      317,
      318,
      319,
      321,
      322,
      323,
      324,
      325,
      326,
      327,
      328,
      329,
      330,
      331,
      332,
      333,
      334,
      335,
      336,
      337,
      338,
      339,
      340,
      341,
      342,
      343,
      344,
      346,
      347,
      348,
      349,
      350,
      351,
      352,
      353,
      354,
      356,
      357,
      358,
      359,
      360,
      362,
      363,
      364,
      366,
      367,
      368,
      369,
      370,
      374,
      375,
      377,
      378,
      379,
      382,
      383,
      384,
      385,
      386,
      390,
      392,
      393,
      394,
      395,
      396,
      397,
      401,
      402,
      403,
      404,
      405,
      406,
      407,
      408,
      409,
      410,
      412,
      413,
      414,
      415,
      416,
      419,
      420,
      421,
      422,
      424,
      425,
      426,
      427,
      428,
      430,
      431,
      432,
      433,
      434,
      436,
      437,
      439,
      440,
      441,
      444,
      446,
      447,
      448,
      449,
      450,
      451,
      453,
      454,
      455,
      456,
      457,
      459,
      460,
      462,
      463,
      464,
      466,
      467,
      468,
      469,
      470,
      471,
      472,
      473,
      474,
      475,
      476,
      477,
      478,
      479,
      480,
      481,
      482,
      483,
      484,
      486,
      487,
      488,
      489,
      491,
      492,
      493,
      494,
      495,
      496,
      497,
      498,
      499,
      500,
      501,
      502,
      506,
      507,
      508,
      509,
      510,
      511,
      512,
      514,
      515,
      520,
      521,
      522,
      523,
      524,
      525,
      526,
      527,
      528,
      529,
      530,
      531,
      532,
      535,
      536,
      537,
      538,
      539,
      540,
      541,
      543,
      544,
      546,
      547,
      548,
      549,
      550,
      551,
      552,
      553,
      554,
      555,
      556,
      558,
      560,
      561,
      562,
      563,
      564,
      565,
      566,
      567,
      568,
      570,
      571,
      572,
      573,
      574,
      575,
      576,
      577,
      578,
      579,
      580,
      581,
      582,
      583,
      584,
      585,
      586,
      587,
      588,
      589,
      590,
      591,
      593,
      594,
      595,
      597,
      598,
      599,
      600,
      601,
      602,
      603,
      605,
      606,
      607,
      608,
      609,
      611,
      612,
      613,
      614,
      615,
      616,
      617,
      618,
      619,
      620,
      621,
      622,
      623,
      624,
      625,
      626,
      627,
      628,
      636,
      637,
      638,
      639,
      640,
      641,
      642,
      643,
      644,
      645,
      646,
      647,
      648,
      649,
      650,
      651,
      652,
      653,
      654,
      655,
      656,
      663,
      667,
      669,
      670,
      671,
      672,
      673,
      674,
      675,
      676,
      681,
      683,
      684,
      685,
      686,
      687,
      688,
      689,
      694,
      695,
      696,
      698,
      704,
      705,
      706,
      708,
      732,
      733,
      749,
      754,
      756,
      757,
      758,
      759,
      760,
      761,
      762,
      763,
      764,
      765,
      766,
      767,
      768,
      770,
      771,
      772,
      773,
      774,
      775,
      776,
      777,
      778,
      779,
      780,
      781,
      782,
      783,
      784,
      785,
      787,
      789,
      790,
      791,
      792,
      793,
      794,
      795,
      796,
      797,
      798,
      799,
      804,
      805,
      806,
      807,
      820,
      821,
      822,
      823,
      824,
      825,
      826,
      827,
      828,
      829,
      830,
      831,
      832,
      833,
      835,
      836,
      837,
      838,
      839,
      841,
      842,
      843,
      862,
      863,
      908,
      909,
      910,
      911,
      912,
      913,
      914,
      915,
      916,
      917,
      918,
      920,
      921,
      922,
      923,
      924,
      925,
      926,
      927,
      939,
      940,
      941,
      942,
      943,
      1004,
      1007,
      1021,
      1022,
      1023,
      1024,
      1025,
      1037,
      1038,
      1039,
      1045,
      1046,
      1049,
      1050,
      1052,
      1058,
      1061,
      1067,
      1071,
      1075,
      1077,
      1079,
      1087,
      1088,
      1089,
      1091,
      1093,
      1096,
      1098,
      1100,
      1102,
      1104,
      1108,
      1116,
      1120,
      1123,
      1126,
      1127,
      1164,
      1173,
      1174,
      1176,
      1177,
      1188,
      1189,
      1190,
      1191,
      1192,
      1193,
      1204,
      1209,
      1220,
      1221,
      1222,
      1223,
      1224,
      1229,
      1230,
      1231,
      1232,
      1233,
      1234,
      1235,
      1236,
      1239,
      1240,
      1241,
      1242,
      1243,
      1244,
      1245,
      1246,
      1247,
      1248,
      1249,
      1250,
      1251,
      1252,
      1253,
      1254,
      1255,
      1256,
      1257,
      1258,
      1259,
      1260,
      1261,
      1262,
      1263,
      1264,
      1265,
      1266,
      1267,
      1268,
      1269,
      1270,
      1271,
      1272,
      1273,
      1274,
      1275,
      1276,
      1277,
      1278,
      1279,
      1280,
      1281,
      1282,
      1283,
      1284,
      1285,
      1286,
      1287,
      1288,
      1289,
      1290,
      1291,
      1292,
      1293,
      1294,
      1295,
      1296,
      1297,
      1298,
      1299,
      1300,
      1301,
      1302,
      1303,
      1304,
      1310,
      1311,
      1312,
      1313,
      1314,
      1315,
      1316,
      1317,
      1318,
      1319,
      1320,
      1321,
      1322,
      1323,
      1325,
      1326,
      1327,
      1328,
      1329,
      1330,
      1331,
      1332,
      1333,
      1334,
      1335,
      1336,
      1338,
      1339,
      1341,
      1342,
      1351,
      1357,
      1384,
      1385,
      1386,
      1389,
      1390,
      1391,
      1392,
      1393,
      1394,
      1395,
      1419,
      1420,
      1421,
      1422,
      1423,
      1427
    ],
    "discouraged": [
      20,
      74,
      75,
      118,
      119,
      138,
      200,
      234,
      269,
      274,
      284,
      285,
      287,
      300,
      311,
      345,
      372,
      400,
      435,
      610,
      657,
      662,
      664,
      665,
      666,
      668,
      680,
      682,
      690,
      691,
      692,
      693,
      697,
      703,
      707,
      710,
      755,
      786,
      788,
      834,
      1426
    ],
    "prohibited": [
      1,
      2,
      3,
      4,
      10,
      16,
      17,
      18,
      19,
      21,
      60,
      63,
      68,
      70,
      71,
      92,
      100,
      101,
      132,
      133,
      136,
      137,
      139,
      169,
      171,
      189,
      199,
      216,
      217,
      218,
      225,
      227,
      247,
      249,
      251,
      254,
      255,
      264,
      265,
      275,
      292,
      310,
      320,
      355,
      361,
      365,
      371,
      373,
      376,
      380,
      381,
      387,
      388,
      389,
      391,
      398,
      399,
      411,
      417,
      418,
      423,
      429,
      438,
      442,
      443,
      445,
      452,
      458,
      461,
      465,
      485,
      490,
      503,
      504,
      505,
      513,
      516,
      517,
      518,
      519,
      533,
      534,
      542,
      545,
      557,
      559,
      569,
      592,
      596,
      604,
      629,
      630,
      631,
      632,
      633,
      634,
      635,
      658,
      659,
      660,
      661,
      677,
      678,
      679,
      699,
      700,
      701,
      702,
      709,
      711,
      712,
      713,
      714,
      715,
      716,
      717,
      718,
      719,
      720,
      721,
      722,
      723,
      724,
      725,
      726,
      727,
      728,
      729,
      730,
      731,
      734,
      735,
      736,
      737,
      738,
      739,
      740,
      741,
      742,
      743,
      744,
      745,
      746,
      747,
      748,
      750,
      751,
      752,
      753,
      769,
      800,
      801,
      802,
      803,
      808,
      809,
      810,
      811,
      812,
      813,
      814,
      815,
      816,
      817,
      818,
      819,
      840,
      844,
      845,
      846,
      847,
      848,
      849,
      850,
      851,
      852,
      853,
      854,
      855,
      856,
      857,
      858,
      859,
      860,
      861,
      864,
      865,
      866,
      867,
      868,
      869,
      870,
      871,
      872,
      873,
      874,
      875,
      876,
      877,
      878,
      879,
      880,
      881,
      882,
      883,
      884,
      885,
      886,
      887,
      888,
      889,
      890,
      891,
      892,
      893,
      894,
      895,
      896,
      897,
      898,
      899,
      900,
      901,
      902,
      903,
      904,
      905,
      906,
      907,
      919,
      928,
      929,
      930,
      931,
      932,
      933,
      934,
      935,
      936,
      937,
      938,
      944,
      945,
      946,
      947,
      948,
      949,
      950,
      951,
      952,
      953,
      954,
      955,
      956,
      957,
      958,
      959,
      960,
      961,
      962,
      963,
      964,
      965,
      966,
      967,
      968,
      969,
      970,
      971,
      972,
      973,
      974,
      975,
      976,
      977,
      978,
      979,
      980,
      981,
      982,
      983,
      984,
      985,
      986,
      987,
      988,
      989,
      990,
      991,
      992,
      993,
      994,
      995,
      996,
      997,
      998,
      999,
      1000,
      1001,
      1002,
      1003,
      1005,
      1006,
      1008,
      1009,
      1010,
      1011,
      1012,
      1013,
      1014,
      1015,
      1016,
      1017,
      1018,
      1019,
      1020,
      1026,
      1027,
      1028,
      1029,
      1030,
      1031,
      1032,
      1033,
      1034,
      1035,
      1036,
      1040,
      1041,
      1042,
      1043,
      1044,
      1047,
      1048,
      1051,
      1053,
      1054,
      1055,
      1056,
      1057,
      1059,
      1060,
      1062,
      1063,
      1064,
      1065,
      1066,
      1068,
      1069,
      1070,
      1072,
      1073,
      1074,
      1076,
      1078,
      1080,
      1081,
      1082,
      1083,
      1084,
      1085,
      1086,
      1090,
      1092,
      1094,
      1095,
      1097,
      1099,
      1101,
      1103,
      1105,
      1106,
      1107,
      1109,
      1110,
      1111,
      1112,
      1113,
      1114,
      1115,
      1117,
      1118,
      1119,
      1121,
      1122,
      1124,
      1125,
      1128,
      1129,
      1130,
      1131,
      1132,
      1133,
      1134,
      1135,
      1136,
      1137,
      1138,
      1139,
      1140,
      1141,
      1142,
      1143,
      1144,
      1145,
      1146,
      1147,
      1148,
      1149,
      1150,
      1151,
      1152,
      1153,
      1154,
      1155,
      1156,
      1157,
      1158,
      1159,
      1160,
      1161,
      1162,
      1163,
      1165,
      1166,
      1167,
      1168,
      1169,
      1170,
      1171,
      1172,
      1175,
      1178,
      1179,
      1180,
      1181,
      1182,
      1183,
      1184,
      1185,
      1186,
      1187,
      1194,
      1195,
      1196,
      1197,
      1198,
      1199,
      1200,
      1201,
      1202,
      1203,
      1205,
      1206,
      1207,
      1208,
      1210,
      1211,
      1212,
      1213,
      1214,
      1215,
      1216,
      1217,
      1218,
      1219,
      1225,
      1226,
      1227,
      1228,
      1237,
      1238,
      1305,
      1306,
      1307,
      1308,
      1309,
      1324,
      1337,
      1340,
      1343,
      1344,
      1345,
      1346,
      1347,
      1348,
      1349,
      1350,
      1352,
      1353,
      1354,
      1355,
      1356,
      1358,
      1359,
      1360,
      1361,
      1362,
      1363,
      1364,
      1365,
      1366,
      1367,
      1368,
      1369,
      1370,
      1371,
      1372,
      1373,
      1374,
      1375,
      1376,
      1377,
      1378,
      1379,
      1380,
      1381,
      1382,
      1383,
      1387,
      1388,
      1396,
      1397,
      1398,
      1399,
      1400,
      1401,
      1402,
      1403,
      1404,
      1405,
      1406,
      1407,
      1408,
      1409,
      1410,
      1411,
      1412,
      1413,
      1414,
      1415,
      1416,
      1417,
      1418,
      1424,
      1425,
      1430,
      2000
    ]
  }
}
