{
  "id": "GHSA-657v-jjf8-83gh",
  "package_name": "jsmsha3",
  "package_manager": "npm",
  "vulnerable_version": "<0",
  "sources": [
    "https://nvd.nist.gov/vuln/detail/GHSA-657v-jjf8-83gh"
  ],
  "type": "PATCH"
}