{
  "id": "GHSA-8hq2-fcqm-39hq",
  "package_name": "rimrafall",
  "package_manager": "npm",
  "vulnerable_version": ">=0 <=1.0.0-security",
  "sources": [
    "https://nvd.nist.gov/vuln/detail/GHSA-8hq2-fcqm-39hq"
  ],
  "type": "PATCH"
}