{
  "id": "GHSA-4wcx-c9c4-89p2",
  "package_name": "react-datepicker-plus",
  "package_manager": "npm",
  "vulnerable_version": ">=2.4.2 <=2.4.3",
  "sources": [
    "https://nvd.nist.gov/vuln/detail/GHSA-4wcx-c9c4-89p2"
  ],
  "type": "PATCH"
}