{
  "id": "GHSA-j6x7-42x2-hpcf",
  "package_name": "buffer-xoz",
  "package_manager": "npm",
  "vulnerable_version": "<0",
  "sources": [
    "https://nvd.nist.gov/vuln/detail/GHSA-j6x7-42x2-hpcf"
  ],
  "type": "PATCH"
}