{
  "id": "GHSA-67mp-pcv9-vvq6",
  "package_name": "jr-sha3",
  "package_manager": "npm",
  "vulnerable_version": "<0",
  "sources": [
    "https://nvd.nist.gov/vuln/detail/GHSA-67mp-pcv9-vvq6"
  ],
  "type": "PATCH"
}