{
  "id": "GHSA-87qw-7v97-w34r",
  "package_name": "asinc",
  "package_manager": "npm",
  "vulnerable_version": "<0",
  "sources": [
    "https://nvd.nist.gov/vuln/detail/GHSA-87qw-7v97-w34r"
  ],
  "type": "PATCH"
}