{
  "id": "GHSA-wgvj-6v57-wjh3",
  "package_name": "bowee",
  "package_manager": "npm",
  "vulnerable_version": "<0",
  "sources": [
    "https://nvd.nist.gov/vuln/detail/GHSA-wgvj-6v57-wjh3"
  ],
  "type": "PATCH"
}