{
  "id": "GHSA-gvm7-8fq3-qjj2",
  "package_name": "bs85",
  "package_manager": "npm",
  "vulnerable_version": "<0",
  "sources": [
    "https://nvd.nist.gov/vuln/detail/GHSA-gvm7-8fq3-qjj2"
  ],
  "type": "PATCH"
}