module parse

go 1.23.0

toolchain go1.23.6

require cuelang.org/go v0.10.0

require (
	cuelabs.dev/go/oci/ociregistry v0.0.0-20240807094312-a32ad29eed79 // indirect
	github.com/cockroachdb/apd/v3 v3.2.1 // indirect
	github.com/emicklei/proto v1.13.2 // indirect
	github.com/google/uuid v1.6.0 // indirect
	github.com/mitchellh/go-wordwrap v1.0.1 // indirect
	github.com/opencontainers/go-digest v1.0.0 // indirect
	github.com/opencontainers/image-spec v1.1.0 // indirect
	github.com/pelletier/go-toml/v2 v2.2.2 // indirect
	github.com/protocolbuffers/txtpbfmt v0.0.0-20230328191034-3462fbc510c0 // indirect
	github.com/rogpeppe/go-internal v1.12.1-0.20240709150035-ccf4b4329d21 // indirect
	golang.org/x/mod v0.20.0 // indirect
	golang.org/x/net v0.33.0 // indirect
	golang.org/x/oauth2 v0.27.0 // indirect
	golang.org/x/text v0.21.0 // indirect
	gopkg.in/yaml.v3 v3.0.1 // indirect
)
